<?xml version="1.0" encoding="UTF-8" standalone="no"?>
<svg
   height="24px"
   viewBox="0 0 24 24"
   width="24px"
   fill="#000000"
   version="1.1"
   id="svg6"
   sodipodi:docname="apps.svg"
   inkscape:version="1.1.2 (0a00cf5339, 2022-02-04)"
   xmlns:inkscape="http://www.inkscape.org/namespaces/inkscape"
   xmlns:sodipodi="http://sodipodi.sourceforge.net/DTD/sodipodi-0.dtd"
   xmlns="http://www.w3.org/2000/svg"
   xmlns:svg="http://www.w3.org/2000/svg">
  <defs
     id="defs10" />
  <sodipodi:namedview
     id="namedview8"
     pagecolor="#ffffff"
     bordercolor="#666666"
     borderopacity="1.0"
     inkscape:pageshadow="2"
     inkscape:pageopacity="0.0"
     inkscape:pagecheckerboard="0"
     showgrid="false"
     inkscape:zoom="1"
     inkscape:cx="11.5"
     inkscape:cy="12"
     inkscape:window-width="1440"
     inkscape:window-height="2489"
     inkscape:window-x="0"
     inkscape:window-y="27"
     inkscape:window-maximized="1"
     inkscape:current-layer="svg6" />
  <path
     d="M0 0h24v24H0V0z"
     fill="none"
     id="path2" />
  <path
     d="m 22,17 h -5 v 5 h 5 z M 14.5,2 h -5 v 4.9999993 h 5 z M 22,2 h -5 v 4.9999993 h 5 z m 0,7.5 h -5 v 5 h 5 z m -7.5,0 h -5 v 5 h 5 z M 6.9999993,22 V 17 H 2 v 5 z M 14.5,17 h -5 v 5 h 5 z M 6.9999993,9.5 H 2 v 5 h 4.9999993 z m 0,-7.5 H 2 v 4.9999993 h 4.9999993 z"
     id="path4"
     style="stroke-width:1.25" />
</svg>
